,Spell Name,Race
0,Animate Dead,
1,Antagonize,
2,Antagonize (UA),
3,Ashardalon's Stride,
4,Aura of Vitality,
5,Beacon of Hope,
6,Bestow Curse,
7,Blinding Smite,
8,Blink,
9,Call Lightning,
10,Catnap,
11,Clairvoyance,
12,Conjure Animals,
13,Conjure Barrage,
14,Conjure Lesser Demon (UA),
15,Counterspell,
16,Create Food and Water,
17,Crusader's Mantle,
18,Daylight,
19,Dispel Magic,
20,Elemental Weapon,
21,Enemies Abound,
22,Erupting Earth,
23,Fast Friends,
24,Fear,
25,Feign Death,
26,Fireball,
27,Flame Arrows,
28,Flame Stride (UA),
29,Fly,
30,Freedom of the Waves (HB),
31,Galder's Tower,
32,Gaseous Form,
33,Glyph of Warding,
34,Haste,
35,Haywire (UA),
36,House of Cards (UA),
37,Hunger Of Hadar,
38,Hypnotic Pattern,
39,Incite Greed,
40,Intellect Fortress,
41,Invisibility To Cameras (UA),
42,Leomund's Tiny Hut,
43,Life Transference,
44,Lightning Arrow,
45,Lightning Bolt,
46,Magic Circle,
47,Major Image,
48,Mass Healing Word,
49,Meld into Stone,
50,Melf's Minute Meteors,
51,Motivational Speech,
52,Nondetection,
53,Phantom Steed,
54,Plant Growth,
55,Protection from Ballistics (UA),
56,Protection from Energy,
57,Psionic Blast (UA),
58,Pulse Wave,
59,Remove Curse,
60,Revivify,
61,Sending,
62,Sleet Storm,
63,Slow,
64,Speak with Dead,
65,Speak with Plants,
66,Spirit Guardians,
67,Spirit Shroud,
68,Stinking Cloud,
69,Summon Fey,
70,Summon Lesser Demons,
71,Summon Shadowspawn,
72,Summon Undead,
73,Summon Warrior Spirit (UA),
74,Thunder Step,
75,Tidal Wave,
76,Tiny Servant,
77,Tongues,
78,Vampiric Touch,
79,Wall of Sand,
80,Wall of Water,
81,Water Breathing,
82,Water Walk,
83,Wind Wall,
