,Spell Name,Race
0,Arcane Gate,
1,Blade Barrier,
2,Bones of the Earth,
3,Chain Lightning,
4,Circle of Death,
5,Conjure Fey,
6,Contingency,
7,Create Homunculus,
8,Create Undead,
9,Disintegrate,
10,Drawmij's Instant Summons,
11,Druid Grove,
12,Eyebite,
13,Find the Path,
14,Fizban's Platinum Shield,
15,Fizban's Platinum Shield (UA),
16,Flesh to Stone,
17,Forbiddance,
18,Globe of Invulnerability,
19,Gravity Fissure,
20,Guards and Wards,
21,Harm,
22,Heal,
23,Heroes' Feast,
24,Investiture of Flame,
25,Investiture of Ice,
26,Investiture of Stone,
27,Investiture of Wind,
28,Magic Jar,
29,Mass Suggestion,
30,Mental Prison,
31,Move Earth,
32,Otherworldly Form (UA),
33,Otiluke's Freezing Sphere,
34,Otto's Irresistible Dance,
35,Planar Ally,
36,Primordial Ward,
37,Programmed Illusion,
38,Psychic Crush (UA),
39,Scatter,
40,Soul Cage,
41,Summon Fiend,
42,Sunbeam,
43,Tasha's Otherworldly Guise,
44,Tenser's Transformation,
45,Transport via Plants,
46,True Seeing,
47,Wall of Ice,
48,Wall of Thorns,
49,Widogast's Transmogrification (HB),
50,Wind Walk,
51,Word of Recall,
