,Spell Name,Class
0,Absorb Elements,"['Artificer', 'Druid', 'Ranger', 'Sorcerer', 'Wizard']"
1,Acid Stream (UA),"['Sorcerer', 'Wizard']"
2,Alarm,"['Artificer', 'Ranger', 'Wizard']"
3,Animal Friendship,"['Bard', 'Druid', 'Ranger']"
4,Arcane Weapon (UA),['Artificer']
5,Armor of Agathys,['Warlock']
6,Arms of Hadar,['Warlock']
7,Bane,"['Bard', 'Cleric']"
8,Beast Bond,"['Druid', 'Ranger']"
9,Bless,"['Cleric', 'Paladin']"
10,Burning Hands,"['Sorcerer', 'Wizard']"
11,Catapult,"['Sorcerer', 'Wizard', 'Artificer']"
12,Cause Fear,"['Warlock', 'Wizard']"
13,Ceremony,"['Cleric', 'Paladin']"
14,Chaos Bolt,['Sorcerer']
15,Charm Person,"['Bard', 'Druid', 'Sorcerer', 'Warlock', 'Wizard']"
16,Chromatic Orb,"['Sorcerer', 'Wizard']"
17,Color Spray,"['Bard', '(Optional)', 'Sorcerer', 'Wizard']"
18,Command,"['Bard', '(Optional)', 'Cleric', 'Paladin']"
19,Compelled Duel,['Paladin']
20,Comprehend Languages,"['Bard', 'Sorcerer', 'Warlock', 'Wizard']"
21,Create or Destroy Water,"['Cleric', 'Druid']"
22,Cure Wounds,"['Artificer', 'Bard', 'Cleric', 'Druid', 'Paladin', 'Ranger']"
23,Detect Evil and Good,"['Cleric', 'Paladin']"
24,Detect Magic,"['Artificer', 'Bard', 'Cleric', 'Druid', 'Paladin', 'Ranger', 'Sorcerer', 'Wizard']"
25,Detect Poison and Disease,"['Cleric', 'Druid', 'Paladin', 'Ranger']"
26,Disguise Self,"['Artificer', 'Bard', 'Sorcerer', 'Wizard']"
27,Dissonant Whispers,['Bard']
28,Distort Value,"['Bard', 'Sorcerer', 'Warlock', 'Wizard']"
29,Divine Favor,['Paladin']
30,Earth Tremor,"['Bard', 'Druid', 'Sorcerer', 'Wizard']"
31,Ensnaring Strike,['Ranger']
32,Entangle,"['Druid', 'Ranger', '(Optional)']"
33,Expeditious Retreat,"['Artificer', 'Sorcerer', 'Warlock', 'Wizard']"
34,Faerie Fire,"['Artificer', 'Bard', 'Druid']"
35,False Life,"['Artificer', 'Sorcerer', 'Wizard']"
36,Feather Fall,"['Artificer', 'Bard', 'Sorcerer', 'Wizard']"
37,Find Familiar,['Wizard']
38,Fog Cloud,"['Druid', 'Ranger', 'Sorcerer', 'Wizard']"
39,Frost Fingers,['Wizard']
40,Gift of Alacrity,"['Wizard', '(Dunamancy)']"
41,Goodberry,"['Druid', 'Ranger']"
42,Grease,"['Artificer', 'Sorcerer', '(Optional)', 'Wizard']"
43,Guiding Bolt,['Cleric']
44,Guiding Hand (UA),
45,Hail of Thorns,['Ranger']
46,Healing Elixir (UA),
47,Healing Word,"['Bard', 'Cleric', 'Druid']"
48,Hellish Rebuke,['Warlock']
49,Heroism,"['Bard', 'Paladin']"
50,Hex,['Warlock']
51,Hunter's Mark,
52,Ice Knife,"['Druid', 'Sorcerer', 'Wizard']"
53,Id Insinuation (UA),"['Sorcerer', 'Warlock', 'Wizard']"
54,Identify,"['Artificer', 'Bard', 'Wizard']"
55,Illusory Script,"['Bard', 'Warlock', 'Wizard']"
56,Infallible Relay (UA),"['Sorcerer', 'Warlock', 'Wizard']"
57,Inflict Wounds,['Cleric']
58,Jim's Magic Missile,
59,Jump,"['Artificer', 'Druid', 'Ranger', 'Sorcerer', 'Wizard']"
60,Longstrider,"['Artificer', 'Bard', 'Druid', 'Ranger', 'Wizard']"
61,Mage Armor,"['Sorcerer', 'Wizard']"
62,Magic Missile,"['Sorcerer', 'Wizard']"
63,Magnify Gravity,"['Wizard', '(Dunamancy)']"
64,Protection from Evil and Good,"['Cleric', 'Druid', '(Optional)', 'Paladin', 'Warlock', 'Wizard']"
65,Puppet (UA),"['Bard', 'Warlock', 'Wizard']"
66,Purify Food and Drink,"['Artificer', 'Cleric', 'Druid', 'Paladin']"
67,Ray of Sickness,"['Sorcerer', 'Wizard']"
68,Remote Access (UA),"['Sorcerer', 'Warlock', 'Wizard']"
69,Sanctuary,"['Artificer', 'Cleric']"
70,Searing Smite,"['Paladin', 'Ranger', '(Optional)']"
71,Sense Emotion (UA),"['Bard', 'Warlock', 'Wizard']"
72,Shield,"['Sorcerer', 'Wizard']"
73,Shield of Faith,"['Cleric', 'Paladin']"
74,Silent Image,"['Bard', 'Sorcerer', 'Wizard']"
75,Silvery Barbs,"['Bard', 'Sorcerer', 'Wizard']"
76,Sleep,"['Bard', 'Sorcerer', 'Wizard']"
77,Snare,"['Artificer', 'Druid', 'Ranger', 'Wizard']"
78,Speak with Animals,"['Bard', 'Druid', 'Ranger']"
79,Sudden Awakening (UA),"['Bard', 'Ranger', 'Sorcerer', 'Wizard']"
80,Tasha's Caustic Brew,
81,Tasha's Hideous Laughter,
82,Tenser's Floating Disk,
83,Thunderous Smite,['Paladin']
84,Thunderwave,"['Bard', 'Druid', 'Sorcerer', 'Wizard']"
85,Unearthly Chorus (UA),['Bard']
86,Unseen Servant,"['Bard', 'Warlock', 'Wizard']"
87,Wild Cunning (UA),"['Druid', 'Ranger']"
88,Witch Bolt,"['Sorcerer', 'Warlock', 'Wizard']"
89,Wrathful Smite,['Paladin']
90,Zephyr Strike,['Ranger']
